…
bigger_list <- mapply(get_forecast_for, 
       more_than_one$lon, more_than_one$lat, more_than_one$when,
       SIMPLIFY=FALSE)
names(bigger_list) <- more_than_one$loc

bigger_list$Seattle[[1]]
```

    ## # A tibble: 24 × 13
    ##                   time       summary                icon precipType temperature apparentTemperature dewPoint humidity
    ##                 <dttm>         <chr>               <chr>      <chr>       <dbl>               <dbl>    <dbl>    <dbl>
    ## 1  2013-05-06 12:00:00 Partly Cloudy partly-cloudy-night       rain       57.34               57.34    36.96     0.46
    ## 2  2013-05-06 13:00:00         Clear         clear-night       rain       55.78               55.78    37.89     0.51
    ## 3  2013-05-06 14:00:00         Clear         clear-night       rain       54.52               54.52    38.45     0.54
    ## 4  2013-05-06 15:00:00 Partly Cloudy partly-cloudy-night       rain       53.33               53.33    38.50     0.57
    ## 5  2013-05-06 16:00:00 Partly Cloudy partly-cloudy-night       rain       52.43               52.43    38.36     0.59
    ## 6  2013-05-06 17:00:00 Partly Cloudy   partly-cloudy-day       rain       52.86               52.86    38.38     0.58
    ## 7  2013-05-06 18:00:00 Mostly Cloudy   partly-cloudy-day       rain       55.25               55.25    38.42     0.53
    ## 8  2013-05-06 19:00:00 Partly Cloudy   partly-cloudy-day       rain       58.97               58.97    38.10     0.46
    ## 9  2013-05-06 20:00:00 Partly Cloudy   partly-cloudy-day       rain       63.02               63.02    37.66     0.39
    ## 10 2013-05-06 21:00:00 Partly Cloudy   partly-cloudy-day       rain       67.49               67.49    37.57     0.33
    ## # ... with 14 more rows, and 5 more variables: windSpeed <dbl>, windBearing <int>, visibility <dbl>, cloudCover <dbl>,
    ## #   pressure <dbl>

``` r
bigger_list$Maine[[1]]
```

    ## # A tibble: 24 × 13
    ##                   time summary        icon precipType temperature apparentTemperature dewPoint humidity windSpeed
    ##                 <dttm>   <chr>       <chr>      <chr>       <dbl>               <dbl>    <dbl>    <dbl>     <dbl>
    ## 1  2013-05-05 14:00:00   Clear clear-night       rain       53.29               53.29    35.65     0.51      3.41
    ## 2  2013-05-05 15:00:00   Clear clear-night       rain       52.38               52.38    36.48     0.55      3.32
    ## 3  2013-05-05 16:00:00   Clear clear-night       rain       51.25               51.25    40.43     0.66     13.00
    ## 4  2013-05-05 17:00:00   Clear clear-night       rain       48.31               48.31    37.36     0.66      2.53
    ## 5  2013-05-05 18:00:00   Clear clear-night       rain       50.96               50.96    38.04     0.61      2.05
    ## 6  2013-05-05 19:00:00   Clear clear-night       rain       50.25               50.25    38.24     0.63      3.49
    ## 7  2013-05-05 20:00:00   Clear clear-night       rain       48.85               48.36    36.79     0.63      3.01
    ## 8  2013-05-05 21:00:00   Clear   clear-day       rain       55.50               55.50    41.43     0.59      3.97
    ## 9  2013-05-05 22:00:00   Clear   clear-day       rain       61.63               61.63    41.26     0.47      1.12
    ## 10 2013-05-05 23:00:00   Clear   clear-day       rain       61.24               61.24    39.30     0.44      2.82
    ## # ... with 14 more rows, and 4 more variables: windBearing <int>, visibility <dbl>, cloudCover <dbl>, pressure <dbl>
…
